GFORTRAN module version '9' created from Matrix.F95
MD5:2271a206503d40db29716967759a2311 -- If you edit this, you'll get what you deserve.

(() () () () () () () () () () () () () () () () () () () () () () () ()
() () ())

()

()

()

()

()

(2 'backward_sub' 'dominatrix' '' 1 ((PROCEDURE UNKNOWN-INTENT
MODULE-PROC DECL UNKNOWN 0 0 SUBROUTINE IMPLICIT_PURE) (UNKNOWN 0 0 0 0
UNKNOWN ()) 3 0 (4 5 6 7) () 0 () () () 0 0)
8 'dominatrix' 'dominatrix' '' 1 ((MODULE UNKNOWN-INTENT UNKNOWN-PROC
UNKNOWN UNKNOWN 0 0) (UNKNOWN 0 0 0 0 UNKNOWN ()) 0 0 () () 0 () () () 0
0)
9 'find_pivot' 'dominatrix' '' 1 ((PROCEDURE UNKNOWN-INTENT MODULE-PROC
DECL UNKNOWN 0 0 FUNCTION IMPLICIT_PURE) (INTEGER 4 0 0 0 INTEGER ()) 10
0 (11 12 13) () 14 () () () 0 0)
15 'forward_sub' 'dominatrix' '' 1 ((PROCEDURE UNKNOWN-INTENT
MODULE-PROC DECL UNKNOWN 0 0 SUBROUTINE IMPLICIT_PURE) (UNKNOWN 0 0 0 0
UNKNOWN ()) 16 0 (17 18 19 20 21) () 0 () () () 0 0)
22 'generate_lower' 'dominatrix' '' 1 ((PROCEDURE UNKNOWN-INTENT
MODULE-PROC DECL UNKNOWN 0 0 SUBROUTINE IMPLICIT_PURE) (UNKNOWN 0 0 0 0
UNKNOWN ()) 23 0 (24 25 26) () 0 () () () 0 0)
27 'generate_upper' 'dominatrix' '' 1 ((PROCEDURE UNKNOWN-INTENT
MODULE-PROC DECL UNKNOWN 0 0 SUBROUTINE IMPLICIT_PURE) (UNKNOWN 0 0 0 0
UNKNOWN ()) 28 0 (29 30 31) () 0 () () () 0 0)
32 'print_matrix' 'dominatrix' '' 1 ((PROCEDURE UNKNOWN-INTENT
MODULE-PROC DECL UNKNOWN 0 0 SUBROUTINE) (UNKNOWN 0 0 0 0 UNKNOWN ()) 33
0 (34 35) () 0 () () () 0 0)
36 'print_vector' 'dominatrix' '' 1 ((PROCEDURE UNKNOWN-INTENT
MODULE-PROC DECL UNKNOWN 0 0 SUBROUTINE) (UNKNOWN 0 0 0 0 UNKNOWN ()) 37
0 (38 39) () 0 () () () 0 0)
40 'swap' 'dominatrix' '' 1 ((PROCEDURE UNKNOWN-INTENT MODULE-PROC DECL
UNKNOWN 0 0 SUBROUTINE IMPLICIT_PURE) (UNKNOWN 0 0 0 0 UNKNOWN ()) 41 0
(42 43 44 45) () 0 () () () 0 0)
46 'swap_rows' 'dominatrix' '' 1 ((PROCEDURE UNKNOWN-INTENT MODULE-PROC
DECL UNKNOWN 0 0 SUBROUTINE IMPLICIT_PURE) (UNKNOWN 0 0 0 0 UNKNOWN ())
47 0 (48 49 50 51) () 0 () () () 0 0)
38 'v' '' '' 37 ((VARIABLE IN UNKNOWN-PROC UNKNOWN UNKNOWN 0 0 DIMENSION
DUMMY) (REAL 8 0 0 0 REAL ()) 0 0 () (1 0 EXPLICIT (CONSTANT (INTEGER 4
0 0 0 INTEGER ()) 0 '1') (VARIABLE (INTEGER 4 0 0 0 INTEGER ()) 0 39 ()))
0 () () () 0 0)
39 's' '' '' 37 ((VARIABLE IN UNKNOWN-PROC UNKNOWN UNKNOWN 0 0 DUMMY) (
INTEGER 4 0 0 0 INTEGER ()) 0 0 () () 0 () () () 0 0)
34 'm' '' '' 33 ((VARIABLE IN UNKNOWN-PROC UNKNOWN UNKNOWN 0 0 DIMENSION
DUMMY) (REAL 8 0 0 0 REAL ()) 0 0 () (2 0 EXPLICIT (CONSTANT (INTEGER 4
0 0 0 INTEGER ()) 0 '1') (VARIABLE (INTEGER 4 0 0 0 INTEGER ()) 0 35 ())
(CONSTANT (INTEGER 4 0 0 0 INTEGER ()) 0 '1') (VARIABLE (INTEGER 4 0 0 0
INTEGER ()) 0 35 ())) 0 () () () 0 0)
35 's' '' '' 33 ((VARIABLE IN UNKNOWN-PROC UNKNOWN UNKNOWN 0 0 DUMMY) (
INTEGER 4 0 0 0 INTEGER ()) 0 0 () () 0 () () () 0 0)
24 'a' '' '' 23 ((VARIABLE INOUT UNKNOWN-PROC UNKNOWN UNKNOWN 0 0
DIMENSION DUMMY) (REAL 8 0 0 0 REAL ()) 0 0 () (2 0 EXPLICIT (CONSTANT (
INTEGER 4 0 0 0 INTEGER ()) 0 '1') (VARIABLE (INTEGER 4 0 0 0 INTEGER ())
0 25 ()) (CONSTANT (INTEGER 4 0 0 0 INTEGER ()) 0 '1') (VARIABLE (
INTEGER 4 0 0 0 INTEGER ()) 0 25 ())) 0 () () () 0 0)
25 's' '' '' 23 ((VARIABLE IN UNKNOWN-PROC UNKNOWN UNKNOWN 0 0 DUMMY) (
INTEGER 4 0 0 0 INTEGER ()) 0 0 () () 0 () () () 0 0)
26 'col' '' '' 23 ((VARIABLE IN UNKNOWN-PROC UNKNOWN UNKNOWN 0 0 DUMMY)
(INTEGER 4 0 0 0 INTEGER ()) 0 0 () () 0 () () () 0 0)
11 'a' '' '' 10 ((VARIABLE IN UNKNOWN-PROC UNKNOWN UNKNOWN 0 0 DIMENSION
DUMMY) (REAL 8 0 0 0 REAL ()) 0 0 () (2 0 EXPLICIT (CONSTANT (INTEGER 4
0 0 0 INTEGER ()) 0 '1') (VARIABLE (INTEGER 4 0 0 0 INTEGER ()) 0 12 ())
(CONSTANT (INTEGER 4 0 0 0 INTEGER ()) 0 '1') (VARIABLE (INTEGER 4 0 0 0
INTEGER ()) 0 12 ())) 0 () () () 0 0)
12 's' '' '' 10 ((VARIABLE IN UNKNOWN-PROC UNKNOWN UNKNOWN 0 0 DUMMY) (
INTEGER 4 0 0 0 INTEGER ()) 0 0 () () 0 () () () 0 0)
13 'col' '' '' 10 ((VARIABLE IN UNKNOWN-PROC UNKNOWN UNKNOWN 0 0 DUMMY)
(INTEGER 4 0 0 0 INTEGER ()) 0 0 () () 0 () () () 0 0)
14 'pivot' '' '' 10 ((VARIABLE UNKNOWN-INTENT UNKNOWN-PROC UNKNOWN
UNKNOWN 0 0 RESULT) (INTEGER 4 0 0 0 INTEGER ()) 0 0 () () 0 () () () 0
0)
48 'a' '' '' 47 ((VARIABLE INOUT UNKNOWN-PROC UNKNOWN UNKNOWN 0 0
DIMENSION DUMMY) (REAL 8 0 0 0 REAL ()) 0 0 () (2 0 EXPLICIT (CONSTANT (
INTEGER 4 0 0 0 INTEGER ()) 0 '1') (VARIABLE (INTEGER 4 0 0 0 INTEGER ())
0 49 ()) (CONSTANT (INTEGER 4 0 0 0 INTEGER ()) 0 '1') (VARIABLE (
INTEGER 4 0 0 0 INTEGER ()) 0 49 ())) 0 () () () 0 0)
49 's' '' '' 47 ((VARIABLE IN UNKNOWN-PROC UNKNOWN UNKNOWN 0 0 DUMMY) (
INTEGER 4 0 0 0 INTEGER ()) 0 0 () () 0 () () () 0 0)
50 'r1' '' '' 47 ((VARIABLE IN UNKNOWN-PROC UNKNOWN UNKNOWN 0 0 DUMMY) (
INTEGER 4 0 0 0 INTEGER ()) 0 0 () () 0 () () () 0 0)
51 'r2' '' '' 47 ((VARIABLE IN UNKNOWN-PROC UNKNOWN UNKNOWN 0 0 DUMMY) (
INTEGER 4 0 0 0 INTEGER ()) 0 0 () () 0 () () () 0 0)
43 's' '' '' 41 ((VARIABLE IN UNKNOWN-PROC UNKNOWN UNKNOWN 0 0 DUMMY) (
INTEGER 4 0 0 0 INTEGER ()) 0 0 () () 0 () () () 0 0)
42 'a' '' '' 41 ((VARIABLE INOUT UNKNOWN-PROC UNKNOWN UNKNOWN 0 0
DIMENSION DUMMY) (INTEGER 4 0 0 0 INTEGER ()) 0 0 () (1 0 EXPLICIT (
CONSTANT (INTEGER 4 0 0 0 INTEGER ()) 0 '1') (VARIABLE (INTEGER 4 0 0 0
INTEGER ()) 0 43 ())) 0 () () () 0 0)
44 'i1' '' '' 41 ((VARIABLE IN UNKNOWN-PROC UNKNOWN UNKNOWN 0 0 DUMMY) (
INTEGER 4 0 0 0 INTEGER ()) 0 0 () () 0 () () () 0 0)
45 'i2' '' '' 41 ((VARIABLE IN UNKNOWN-PROC UNKNOWN UNKNOWN 0 0 DUMMY) (
INTEGER 4 0 0 0 INTEGER ()) 0 0 () () 0 () () () 0 0)
29 'a' '' '' 28 ((VARIABLE INOUT UNKNOWN-PROC UNKNOWN UNKNOWN 0 0
DIMENSION DUMMY) (REAL 8 0 0 0 REAL ()) 0 0 () (2 0 EXPLICIT (CONSTANT (
INTEGER 4 0 0 0 INTEGER ()) 0 '1') (VARIABLE (INTEGER 4 0 0 0 INTEGER ())
0 30 ()) (CONSTANT (INTEGER 4 0 0 0 INTEGER ()) 0 '1') (VARIABLE (
INTEGER 4 0 0 0 INTEGER ()) 0 30 ())) 0 () () () 0 0)
30 's' '' '' 28 ((VARIABLE IN UNKNOWN-PROC UNKNOWN UNKNOWN 0 0 DUMMY) (
INTEGER 4 0 0 0 INTEGER ()) 0 0 () () 0 () () () 0 0)
31 'row' '' '' 28 ((VARIABLE IN UNKNOWN-PROC UNKNOWN UNKNOWN 0 0 DUMMY)
(INTEGER 4 0 0 0 INTEGER ()) 0 0 () () 0 () () () 0 0)
18 'p' '' '' 16 ((VARIABLE IN UNKNOWN-PROC UNKNOWN UNKNOWN 0 0 DIMENSION
DUMMY) (INTEGER 4 0 0 0 INTEGER ()) 0 0 () (1 0 EXPLICIT (CONSTANT (
INTEGER 4 0 0 0 INTEGER ()) 0 '1') (VARIABLE (INTEGER 4 0 0 0 INTEGER ())
0 21 ())) 0 () () () 0 0)
17 'm' '' '' 16 ((VARIABLE IN UNKNOWN-PROC UNKNOWN UNKNOWN 0 0 DIMENSION
DUMMY) (REAL 8 0 0 0 REAL ()) 0 0 () (2 0 EXPLICIT (CONSTANT (INTEGER 4
0 0 0 INTEGER ()) 0 '1') (VARIABLE (INTEGER 4 0 0 0 INTEGER ()) 0 21 ())
(CONSTANT (INTEGER 4 0 0 0 INTEGER ()) 0 '1') (VARIABLE (INTEGER 4 0 0 0
INTEGER ()) 0 21 ())) 0 () () () 0 0)
19 'z' '' '' 16 ((VARIABLE INOUT UNKNOWN-PROC UNKNOWN UNKNOWN 0 0
DIMENSION DUMMY) (REAL 8 0 0 0 REAL ()) 0 0 () (1 0 EXPLICIT (CONSTANT (
INTEGER 4 0 0 0 INTEGER ()) 0 '1') (VARIABLE (INTEGER 4 0 0 0 INTEGER ())
0 21 ())) 0 () () () 0 0)
20 'b' '' '' 16 ((VARIABLE IN UNKNOWN-PROC UNKNOWN UNKNOWN 0 0 DIMENSION
DUMMY) (REAL 8 0 0 0 REAL ()) 0 0 () (1 0 EXPLICIT (CONSTANT (INTEGER 4
0 0 0 INTEGER ()) 0 '1') (VARIABLE (INTEGER 4 0 0 0 INTEGER ()) 0 21 ()))
0 () () () 0 0)
21 's' '' '' 16 ((VARIABLE IN UNKNOWN-PROC UNKNOWN UNKNOWN 0 0 DUMMY) (
INTEGER 4 0 0 0 INTEGER ()) 0 0 () () 0 () () () 0 0)
4 'm' '' '' 3 ((VARIABLE IN UNKNOWN-PROC UNKNOWN UNKNOWN 0 0 DIMENSION
DUMMY) (REAL 8 0 0 0 REAL ()) 0 0 () (2 0 EXPLICIT (CONSTANT (INTEGER 4
0 0 0 INTEGER ()) 0 '1') (VARIABLE (INTEGER 4 0 0 0 INTEGER ()) 0 7 ())
(CONSTANT (INTEGER 4 0 0 0 INTEGER ()) 0 '1') (VARIABLE (INTEGER 4 0 0 0
INTEGER ()) 0 7 ())) 0 () () () 0 0)
5 'x' '' '' 3 ((VARIABLE INOUT UNKNOWN-PROC UNKNOWN UNKNOWN 0 0
DIMENSION DUMMY) (REAL 8 0 0 0 REAL ()) 0 0 () (1 0 EXPLICIT (CONSTANT (
INTEGER 4 0 0 0 INTEGER ()) 0 '1') (VARIABLE (INTEGER 4 0 0 0 INTEGER ())
0 7 ())) 0 () () () 0 0)
6 'z' '' '' 3 ((VARIABLE IN UNKNOWN-PROC UNKNOWN UNKNOWN 0 0 DIMENSION
DUMMY) (REAL 8 0 0 0 REAL ()) 0 0 () (1 0 EXPLICIT (CONSTANT (INTEGER 4
0 0 0 INTEGER ()) 0 '1') (VARIABLE (INTEGER 4 0 0 0 INTEGER ()) 0 7 ()))
0 () () () 0 0)
7 's' '' '' 3 ((VARIABLE IN UNKNOWN-PROC UNKNOWN UNKNOWN 0 0 DUMMY) (
INTEGER 4 0 0 0 INTEGER ()) 0 0 () () 0 () () () 0 0)
)

('backward_sub' 0 2 'dominatrix' 0 8 'find_pivot' 0 9 'forward_sub' 0 15
'generate_lower' 0 22 'generate_upper' 0 27 'print_matrix' 0 32
'print_vector' 0 36 'swap' 0 40 'swap_rows' 0 46)
